Sentiment analysis | Victor Mandela
…
Tune model parameters

Let’s get ready to tune the lasso model! First, we need a set of possible regularization parameters to try.

lambda_grid <- grid_regular(penalty(), levels = 40)

Next, we need a set of resampled data to fit and evaluate all these models.

set.seed(123)
review_folds <- bootstraps(review_train, strata = rating)
review_folds

## # Bootstrap sampling using stratification 
## # A tibble: 25 x 2
##    splits             id         
##    <list>             <chr>      
##  1 <split [2.2K/812]> Bootstrap01
##  2 <split [2.2K/850]> Bootstrap02
##  3 <split [2.2K/814]> Bootstrap03
##  4 <split [2.2K/814]> Bootstrap04
##  5 <split [2.2K/853]> Bootstrap05
##  6 <split [2.2K/840]> Bootstrap06
##  7 <split [2.2K/816]> Bootstrap07
##  8 <split [2.2K/826]> Bootstrap08
##  9 <split [2.2K/804]> Bootstrap09
## 10 <split [2.2K/809]> Bootstrap10
## # ... with 15 more rows
…
set.seed(2020)
lasso_grid <- tune_grid(
  lasso_wf,
  resamples = review_folds,
  grid = lambda_grid,
  metrics = metric_set(roc_auc, ppv, npv)
)

Once we have our tuning results, we can examine them in detail.

lasso_grid %>%
  collect_metrics()

## # A tibble: 120 x 7
##     penalty .metric .estimator  mean     n std_err .config              
##       <dbl> <chr>   <chr>      <dbl> <int>   <dbl> <chr>                
##  1 1.00e-10 npv     binary     0.740    25 0.00518 Preprocessor1_Model01
##  2 1.00e-10 ppv     binary     0.864    25 0.00302 Preprocessor1_Model01
##  3 1.00e-10 roc_auc binary     0.878    25 0.00276 Preprocessor1_Model01
##  4 1.80e-10 npv     binary     0.740    25 0.00518 Preprocessor1_Model02
##  5 1.80e-10 ppv     binary     0.864    25 0.00302 Preprocessor1_Model02
##  6 1.80e-10 roc_auc binary     0.878    25 0.00276 Preprocessor1_Model02
##  7 3.26e-10 npv     binary     0.740    25 0.00518 Preprocessor1_Model03
##  8 3.26e-10 ppv     binary     0.864    25 0.00302 Preprocessor1_Model03
##  9 3.26e-10 roc_auc binary     0.878    25 0.00276 Preprocessor1_Model03
## 10 5.88e-10 npv     binary     0.740    25 0.00518 Preprocessor1_Model04
## # ... with 110 more rows
…
